Analyze CRAN download data for packages released since 1.1.2020
…
# Some packages have had 0 counts, pull these out
any0 <- dl %>%
  filter(count==0) %>%
  count(package) %>%
  arrange(desc(n))

# Check whether any of these have had non-trivial max daily downloads
dl %>%
  filter(package %in% any0$package) %>%
  select(package, avg_daily_count, med_daily_count) %>%
  group_by(package) %>%
  slice(1) %>%
  arrange(desc(avg_daily_count))

## # A tibble: 979 x 3
## # Groups:   package [979]
##    package           avg_daily_count med_daily_count
##    <chr>                       <dbl>           <dbl>
##  1 rbibutils                  1454.           1547  
##  2 cubelyr                     351.            382  
##  3 spatstat.sparse             296.             15  
##  4 lightgbm                     87.2            85  
##  5 Require                      61.5            42  
##  6 covid19.analytics            52.4            47  
##  7 RcppSimdJson                 47.0            23.5
##  8 tidytable                    40.5            36.5
##  9 round                        40.1            35  
## 10 landmap                      38.6            17  
## #  with 969 more rows
…
